Single-Cycle-RISC-Schematic/isim.log
ISim log file
Running: C:\Users\ib701\Desktop\Single-Cycle-RISC-Schematic\Single-Cycle-RISC-Schematic\Single_Cycle_RISC_Single_Cycle_RISC_sch_tb_isim_beh.exe -intstyle ise -gui -tclbatch isim.cmd -wdb C:/Users/ib701/Desktop/Single-Cycle-RISC-Schematic/Single-Cycle-RISC-Schematic/Single_Cycle_RISC_Single_Cycle_RISC_sch_tb_isim_beh.wdb 
ISim P.20131013 (signature 0x7708f090)
WARNING: A WEBPACK license was found.
WARNING: Please use Xilinx License Configuration Manager to check out a full ISim license.
WARNING: ISim will run in Lite mode. Please refer to the ISim documentation for more information on the differences between the Lite and the Full version.
This is a Lite version of ISim.
Time resolution is 1 ps
# onerror resume
# wave add /
# run 6000 ns
Simulator is doing circuit initialization process.
Finished circuit initialization process.
0ns 0 0 0 0 0000 0000 0 0000 0000 xxxx 0000 x

20ns 1 0 1 0 0000 0000 1 0000 0012 0000 0000 1

30ns 0 0 1 0 0000 0000 1 0000 0012 0000 0000 1

40ns 1 0 1 0 0000 0000 1 0001 0034 0000 0000 1

50ns 0 0 1 0 0000 0000 1 0001 0034 0000 0000 1

60ns 1 0 1 0 0000 0000 1 0002 0056 0000 0000 1

70ns 0 0 1 0 0000 0000 1 0002 0056 0000 0000 1

80ns 1 0 1 0 0000 0000 1 0003 0078 0000 0000 1

90ns 0 0 1 0 0000 0000 1 0003 0078 0000 0000 1

100ns 1 0 1 0 0000 0000 1 0004 009a 0000 0000 1

110ns 0 0 1 0 0000 0000 1 0004 009a 0000 0000 1

120ns 1 0 1 0 0000 0000 1 0005 00bc 0000 0000 1

130ns 0 0 1 0 0000 0000 1 0005 00bc 0000 0000 1

140ns 1 0 1 0 0000 0000 1 0006 00de 0000 0000 1

150ns 0 0 1 0 0000 0000 1 0006 00de 0000 0000 1

160ns 1 0 1 0 0000 0000 1 0007 00f0 0000 0000 1

170ns 0 0 1 0 0000 0000 1 0007 00f0 0000 0000 1

180ns 1 0 1 0 0000 0000 1 0008 0013 0000 0000 1

190ns 0 0 1 0 0000 0000 1 0008 0013 0000 0000 1

200ns 1 0 1 0 0000 0000 1 0009 0024 0000 0000 1

210ns 0 0 1 0 0000 0000 1 0009 0024 0000 0000 1

220ns 1 0 1 1 0000 e000 1 0009 0024 0000 0000 1

230ns 0 0 1 1 0000 e000 1 0009 0024 0000 0000 1

230.1ns 0 0 1 1 0000 e000 1 0009 0024 e000 0000 1

240ns 1 0 1 1 0001 1225 1 0009 0024 0000 0000 1

250ns 0 0 1 1 0001 1225 1 0009 0024 0000 0000 1

250.1ns 0 0 1 1 0001 1225 1 0009 0024 1225 0000 1

260ns 1 0 1 1 0002 e040 1 0009 0024 0000 0000 1

270ns 0 0 1 1 0002 e040 1 0009 0024 0000 0000 1

270.1ns 0 0 1 1 0002 e040 1 0009 0024 e040 0000 1

280ns 1 0 1 1 0003 110a 1 0009 0024 0000 0000 1

290ns 0 0 1 1 0003 110a 1 0009 0024 0000 0000 1

290.1ns 0 0 1 1 0003 110a 1 0009 0024 110a 0000 1

300ns 1 0 1 1 0004 e020 1 0009 0024 0000 0000 1

310ns 0 0 1 1 0004 e020 1 0009 0024 0000 0000 1

310.1ns 0 0 1 1 0004 e020 1 0009 0024 e020 0000 1

320ns 1 0 1 1 0005 1e00 1 0009 0024 0000 0000 1

330ns 0 0 1 1 0005 1e00 1 0009 0024 0000 0000 1

330.1ns 0 0 1 1 0005 1e00 1 0009 0024 1e00 0000 1

340ns 1 0 1 1 0006 e0c0 1 0009 0024 0000 0000 1

350ns 0 0 1 1 0006 e0c0 1 0009 0024 0000 0000 1

350.1ns 0 0 1 1 0006 e0c0 1 0009 0024 e0c0 0000 1

360ns 1 0 1 1 0007 2e40 1 0009 0024 0000 0000 1

370ns 0 0 1 1 0007 2e40 1 0009 0024 0000 0000 1

370.1ns 0 0 1 1 0007 2e40 1 0009 0024 2e40 0000 1

380ns 1 0 1 1 0008 3801 1 0009 0024 0000 0000 1

390ns 0 0 1 1 0008 3801 1 0009 0024 0000 0000 1

390.1ns 0 0 1 1 0008 3801 1 0009 0024 3801 0000 1

400ns 1 0 1 1 0009 3a41 1 0009 0024 0000 0000 1

410ns 0 0 1 1 0009 3a41 1 0009 0024 0000 0000 1

410.1ns 0 0 1 1 0009 3a41 1 0009 0024 3a41 0000 1

420ns 1 0 1 1 000a 4121 1 0009 0024 0000 0000 1

430ns 0 0 1 1 000a 4121 1 0009 0024 0000 0000 1

430.1ns 0 0 1 1 000a 4121 1 0009 0024 4121 0000 1

440ns 1 0 1 1 000b c002 1 0009 0024 0000 0000 1

450ns 0 0 1 1 000b c002 1 0009 0024 0000 0000 1

450.1ns 0 0 1 1 000b c002 1 0009 0024 c002 0000 1

460ns 1 0 1 1 000c 8005 1 0009 0024 0000 0000 1

470ns 0 0 1 1 000c 8005 1 0009 0024 0000 0000 1

470.1ns 0 0 1 1 000c 8005 1 0009 0024 8005 0000 1

480ns 1 0 1 1 000d 1225 1 0009 0024 0000 0000 1

490ns 0 0 1 1 000d 1225 1 0009 0024 0000 0000 1

490.1ns 0 0 1 1 000d 1225 1 0009 0024 1225 0000 1

500ns 1 0 1 1 000e e040 1 0009 0024 0000 0000 1

510ns 0 0 1 1 000e e040 1 0009 0024 0000 0000 1

510.1ns 0 0 1 1 000e e040 1 0009 0024 e040 0000 1

520ns 1 0 1 1 000f 110a 1 0009 0024 0000 0000 1

530ns 0 0 1 1 000f 110a 1 0009 0024 0000 0000 1

530.1ns 0 0 1 1 000f 110a 1 0009 0024 110a 0000 1

540ns 1 0 1 1 0010 e020 1 0009 0024 0000 0000 1

550ns 0 0 1 1 0010 e020 1 0009 0024 0000 0000 1

550.1ns 0 0 1 1 0010 e020 1 0009 0024 e020 0000 1

560ns 1 0 1 1 0011 1b40 1 0009 0024 0000 0000 1

570ns 0 0 1 1 0011 1b40 1 0009 0024 0000 0000 1

570.1ns 0 0 1 1 0011 1b40 1 0009 0024 1b40 0000 1

580ns 1 0 1 1 0012 e060 1 0009 0024 0000 0000 1

590ns 0 0 1 1 0012 e060 1 0009 0024 0000 0000 1

590.1ns 0 0 1 1 0012 e060 1 0009 0024 e060 0000 1

600ns 1 0 1 1 0013 3a41 1 0009 0024 0000 0000 1

610ns 0 0 1 1 0013 3a41 1 0009 0024 0000 0000 1

610.1ns 0 0 1 1 0013 3a41 1 0009 0024 3a41 0000 1

620ns 1 0 1 1 0014 4121 1 0009 0024 0000 0000 1

630ns 0 0 1 1 0014 4121 1 0009 0024 0000 0000 1

630.1ns 0 0 1 1 0014 4121 1 0009 0024 4121 0000 1

640ns 1 0 1 1 0015 c1fc 1 0009 0024 0000 0000 1

650ns 0 0 1 1 0015 c1fc 1 0009 0024 0000 0000 1

650.1ns 0 0 1 1 0015 c1fc 1 0009 0024 c1fc 0000 1

660ns 1 0 1 1 0016 e001 1 0009 0024 0000 0000 1

670ns 0 0 1 1 0016 e001 1 0009 0024 0000 0000 1

670.1ns 0 0 1 1 0016 e001 1 0009 0024 e001 0000 0

680ns 1 0 1 1 0016 e001 1 0009 0024 e001 0000 0

690ns 0 0 1 1 0016 e001 1 0009 0024 e001 0000 0

700ns 1 1 0 0 0016 e001 0 0009 0024 e000 0000 1

710ns 0 0 0 0 0016 e001 0 0009 0024 e000 0000 1

720ns 1 0 0 0 0016 e001 0 0009 0024 1225 0000 1

730ns 0 0 0 0 0016 e001 0 0009 0024 1225 0000 1

740ns 1 0 0 0 0016 e001 0 0009 0024 e040 0000 1

750ns 0 0 0 0 0016 e001 0 0009 0024 e040 0000 1

750.1ns 0 0 0 0 0016 e001 0 0009 0024 e040 0025 1

760ns 1 0 0 0 0016 e001 0 0009 0024 110a 0025 1

770ns 0 0 0 0 0016 e001 0 0009 0024 110a 0025 1

780ns 1 0 0 0 0016 e001 0 0009 0024 e020 0025 1

790ns 0 0 0 0 0016 e001 0 0009 0024 e020 0025 1

790.1ns 0 0 0 0 0016 e001 0 0009 0024 e020 000a 1

800ns 1 0 0 0 0016 e001 0 0009 0024 1e00 000a 1

810ns 0 0 0 0 0016 e001 0 0009 0024 1e00 000a 1

820ns 1 0 0 0 0016 e001 0 0009 0024 e0c0 000a 1

830ns 0 0 0 0 0016 e001 0 0009 0024 e0c0 000a 1

830.1ns 0 0 0 0 0016 e001 0 0009 0024 e0c0 0012 1

840ns 1 0 0 0 0016 e001 0 0009 0024 2e40 0012 1

850ns 0 0 0 0 0016 e001 0 0009 0024 2e40 0012 1

860ns 1 0 0 0 0016 e001 0 0009 0024 3801 0012 1

870ns 0 0 0 0 0016 e001 0 0009 0024 3801 0012 1

880ns 1 0 0 0 0016 e001 0 0009 0024 3a41 0012 1

890ns 0 0 0 0 0016 e001 0 0009 0024 3a41 0012 1

900ns 1 0 0 0 0016 e001 0 0009 0024 4121 0012 1

910ns 0 0 0 0 0016 e001 0 0009 0024 4121 0012 1

920ns 1 0 0 0 0016 e001 0 0009 0024 c002 0012 1

930ns 0 0 0 0 0016 e001 0 0009 0024 c002 0012 1

940ns 1 0 0 0 0016 e001 0 0009 0024 8005 0012 1

950ns 0 0 0 0 0016 e001 0 0009 0024 8005 0012 1

960ns 1 0 0 0 0016 e001 0 0009 0024 1e00 0012 1

970ns 0 0 0 0 0016 e001 0 0009 0024 1e00 0012 1

980ns 1 0 0 0 0016 e001 0 0009 0024 e0c0 0012 1

990ns 0 0 0 0 0016 e001 0 0009 0024 e0c0 0012 1

990.1ns 0 0 0 0 0016 e001 0 0009 0024 e0c0 0034 1

1000ns 1 0 0 0 0016 e001 0 0009 0024 2e40 0034 1

1010ns 0 0 0 0 0016 e001 0 0009 0024 2e40 0034 1

1020ns 1 0 0 0 0016 e001 0 0009 0024 3801 0034 1

1030ns 0 0 0 0 0016 e001 0 0009 0024 3801 0034 1

1040ns 1 0 0 0 0016 e001 0 0009 0024 3a41 0034 1

1050ns 0 0 0 0 0016 e001 0 0009 0024 3a41 0034 1

1060ns 1 0 0 0 0016 e001 0 0009 0024 4121 0034 1

1070ns 0 0 0 0 0016 e001 0 0009 0024 4121 0034 1

1080ns 1 0 0 0 0016 e001 0 0009 0024 c002 0034 1

1090ns 0 0 0 0 0016 e001 0 0009 0024 c002 0034 1

1100ns 1 0 0 0 0016 e001 0 0009 0024 8005 0034 1

1110ns 0 0 0 0 0016 e001 0 0009 0024 8005 0034 1

1120ns 1 0 0 0 0016 e001 0 0009 0024 1e00 0034 1

1130ns 0 0 0 0 0016 e001 0 0009 0024 1e00 0034 1

1140ns 1 0 0 0 0016 e001 0 0009 0024 e0c0 0034 1

1150ns 0 0 0 0 0016 e001 0 0009 0024 e0c0 0034 1

1150.1ns 0 0 0 0 0016 e001 0 0009 0024 e0c0 0056 1

1160ns 1 0 0 0 0016 e001 0 0009 0024 2e40 0056 1

1170ns 0 0 0 0 0016 e001 0 0009 0024 2e40 0056 1

1180ns 1 0 0 0 0016 e001 0 0009 0024 3801 0056 1

1190ns 0 0 0 0 0016 e001 0 0009 0024 3801 0056 1

1200ns 1 0 0 0 0016 e001 0 0009 0024 3a41 0056 1

1210ns 0 0 0 0 0016 e001 0 0009 0024 3a41 0056 1

1220ns 1 0 0 0 0016 e001 0 0009 0024 4121 0056 1

1230ns 0 0 0 0 0016 e001 0 0009 0024 4121 0056 1

1240ns 1 0 0 0 0016 e001 0 0009 0024 c002 0056 1

1250ns 0 0 0 0 0016 e001 0 0009 0024 c002 0056 1

1260ns 1 0 0 0 0016 e001 0 0009 0024 8005 0056 1

1270ns 0 0 0 0 0016 e001 0 0009 0024 8005 0056 1

1280ns 1 0 0 0 0016 e001 0 0009 0024 1e00 0056 1

1290ns 0 0 0 0 0016 e001 0 0009 0024 1e00 0056 1

1300ns 1 0 0 0 0016 e001 0 0009 0024 e0c0 0056 1

1310ns 0 0 0 0 0016 e001 0 0009 0024 e0c0 0056 1

1310.1ns 0 0 0 0 0016 e001 0 0009 0024 e0c0 0078 1

1320ns 1 0 0 0 0016 e001 0 0009 0024 2e40 0078 1

1330ns 0 0 0 0 0016 e001 0 0009 0024 2e40 0078 1

1340ns 1 0 0 0 0016 e001 0 0009 0024 3801 0078 1

1350ns 0 0 0 0 0016 e001 0 0009 0024 3801 0078 1

1360ns 1 0 0 0 0016 e001 0 0009 0024 3a41 0078 1

1370ns 0 0 0 0 0016 e001 0 0009 0024 3a41 0078 1

1380ns 1 0 0 0 0016 e001 0 0009 0024 4121 0078 1

1390ns 0 0 0 0 0016 e001 0 0009 0024 4121 0078 1

1400ns 1 0 0 0 0016 e001 0 0009 0024 c002 0078 1

1410ns 0 0 0 0 0016 e001 0 0009 0024 c002 0078 1

1420ns 1 0 0 0 0016 e001 0 0009 0024 8005 0078 1

1430ns 0 0 0 0 0016 e001 0 0009 0024 8005 0078 1

1440ns 1 0 0 0 0016 e001 0 0009 0024 1e00 0078 1

1450ns 0 0 0 0 0016 e001 0 0009 0024 1e00 0078 1

1460ns 1 0 0 0 0016 e001 0 0009 0024 e0c0 0078 1

1470ns 0 0 0 0 0016 e001 0 0009 0024 e0c0 0078 1

1470.1ns 0 0 0 0 0016 e001 0 0009 0024 e0c0 009a 1

1480ns 1 0 0 0 0016 e001 0 0009 0024 2e40 009a 1

1490ns 0 0 0 0 0016 e001 0 0009 0024 2e40 009a 1

1500ns 1 0 0 0 0016 e001 0 0009 0024 3801 009a 1

1510ns 0 0 0 0 0016 e001 0 0009 0024 3801 009a 1

1520ns 1 0 0 0 0016 e001 0 0009 0024 3a41 009a 1

1530ns 0 0 0 0 0016 e001 0 0009 0024 3a41 009a 1

1540ns 1 0 0 0 0016 e001 0 0009 0024 4121 009a 1

1550ns 0 0 0 0 0016 e001 0 0009 0024 4121 009a 1

1560ns 1 0 0 0 0016 e001 0 0009 0024 c002 009a 1

1570ns 0 0 0 0 0016 e001 0 0009 0024 c002 009a 1

1580ns 1 0 0 0 0016 e001 0 0009 0024 8005 009a 1

1590ns 0 0 0 0 0016 e001 0 0009 0024 8005 009a 1

1600ns 1 0 0 0 0016 e001 0 0009 0024 1e00 009a 1

1610ns 0 0 0 0 0016 e001 0 0009 0024 1e00 009a 1

1620ns 1 0 0 0 0016 e001 0 0009 0024 e0c0 009a 1

1630ns 0 0 0 0 0016 e001 0 0009 0024 e0c0 009a 1

1630.1ns 0 0 0 0 0016 e001 0 0009 0024 e0c0 00bc 1

1640ns 1 0 0 0 0016 e001 0 0009 0024 2e40 00bc 1

1650ns 0 0 0 0 0016 e001 0 0009 0024 2e40 00bc 1

1660ns 1 0 0 0 0016 e001 0 0009 0024 3801 00bc 1

1670ns 0 0 0 0 0016 e001 0 0009 0024 3801 00bc 1

1680ns 1 0 0 0 0016 e001 0 0009 0024 3a41 00bc 1

1690ns 0 0 0 0 0016 e001 0 0009 0024 3a41 00bc 1

1700ns 1 0 0 0 0016 e001 0 0009 0024 4121 00bc 1

1710ns 0 0 0 0 0016 e001 0 0009 0024 4121 00bc 1

1720ns 1 0 0 0 0016 e001 0 0009 0024 c002 00bc 1

1730ns 0 0 0 0 0016 e001 0 0009 0024 c002 00bc 1

1740ns 1 0 0 0 0016 e001 0 0009 0024 8005 00bc 1

1750ns 0 0 0 0 0016 e001 0 0009 0024 8005 00bc 1

1760ns 1 0 0 0 0016 e001 0 0009 0024 1e00 00bc 1

1770ns 0 0 0 0 0016 e001 0 0009 0024 1e00 00bc 1

1780ns 1 0 0 0 0016 e001 0 0009 0024 e0c0 00bc 1

1790ns 0 0 0 0 0016 e001 0 0009 0024 e0c0 00bc 1

1790.1ns 0 0 0 0 0016 e001 0 0009 0024 e0c0 00de 1

1800ns 1 0 0 0 0016 e001 0 0009 0024 2e40 00de 1

1810ns 0 0 0 0 0016 e001 0 0009 0024 2e40 00de 1

1820ns 1 0 0 0 0016 e001 0 0009 0024 3801 00de 1

1830ns 0 0 0 0 0016 e001 0 0009 0024 3801 00de 1

1840ns 1 0 0 0 0016 e001 0 0009 0024 3a41 00de 1

1850ns 0 0 0 0 0016 e001 0 0009 0024 3a41 00de 1

1860ns 1 0 0 0 0016 e001 0 0009 0024 4121 00de 1

1870ns 0 0 0 0 0016 e001 0 0009 0024 4121 00de 1

1880ns 1 0 0 0 0016 e001 0 0009 0024 c002 00de 1

1890ns 0 0 0 0 0016 e001 0 0009 0024 c002 00de 1

1900ns 1 0 0 0 0016 e001 0 0009 0024 8005 00de 1

1910ns 0 0 0 0 0016 e001 0 0009 0024 8005 00de 1

1920ns 1 0 0 0 0016 e001 0 0009 0024 1e00 00de 1

1930ns 0 0 0 0 0016 e001 0 0009 0024 1e00 00de 1

1940ns 1 0 0 0 0016 e001 0 0009 0024 e0c0 00de 1

1950ns 0 0 0 0 0016 e001 0 0009 0024 e0c0 00de 1

1950.1ns 0 0 0 0 0016 e001 0 0009 0024 e0c0 00f0 1

1960ns 1 0 0 0 0016 e001 0 0009 0024 2e40 00f0 1

1970ns 0 0 0 0 0016 e001 0 0009 0024 2e40 00f0 1

1980ns 1 0 0 0 0016 e001 0 0009 0024 3801 00f0 1

1990ns 0 0 0 0 0016 e001 0 0009 0024 3801 00f0 1

2000ns 1 0 0 0 0016 e001 0 0009 0024 3a41 00f0 1

2010ns 0 0 0 0 0016 e001 0 0009 0024 3a41 00f0 1

2020ns 1 0 0 0 0016 e001 0 0009 0024 4121 00f0 1

2030ns 0 0 0 0 0016 e001 0 0009 0024 4121 00f0 1

2040ns 1 0 0 0 0016 e001 0 0009 0024 c002 00f0 1

2050ns 0 0 0 0 0016 e001 0 0009 0024 c002 00f0 1

2060ns 1 0 0 0 0016 e001 0 0009 0024 8005 00f0 1

2070ns 0 0 0 0 0016 e001 0 0009 0024 8005 00f0 1

2080ns 1 0 0 0 0016 e001 0 0009 0024 1e00 00f0 1

2090ns 0 0 0 0 0016 e001 0 0009 0024 1e00 00f0 1

2100ns 1 0 0 0 0016 e001 0 0009 0024 e0c0 00f0 1

2110ns 0 0 0 0 0016 e001 0 0009 0024 e0c0 00f0 1

2110.1ns 0 0 0 0 0016 e001 0 0009 0024 e0c0 0013 1

2120ns 1 0 0 0 0016 e001 0 0009 0024 2e40 0013 1

2130ns 0 0 0 0 0016 e001 0 0009 0024 2e40 0013 1

2140ns 1 0 0 0 0016 e001 0 0009 0024 3801 0013 1

2150ns 0 0 0 0 0016 e001 0 0009 0024 3801 0013 1

2160ns 1 0 0 0 0016 e001 0 0009 0024 3a41 0013 1

2170ns 0 0 0 0 0016 e001 0 0009 0024 3a41 0013 1

2180ns 1 0 0 0 0016 e001 0 0009 0024 4121 0013 1

2190ns 0 0 0 0 0016 e001 0 0009 0024 4121 0013 1

2200ns 1 0 0 0 0016 e001 0 0009 0024 c002 0013 1

2210ns 0 0 0 0 0016 e001 0 0009 0024 c002 0013 1

2220ns 1 0 0 0 0016 e001 0 0009 0024 8005 0013 1

2230ns 0 0 0 0 0016 e001 0 0009 0024 8005 0013 1

2240ns 1 0 0 0 0016 e001 0 0009 0024 1e00 0013 1

2250ns 0 0 0 0 0016 e001 0 0009 0024 1e00 0013 1

2260ns 1 0 0 0 0016 e001 0 0009 0024 e0c0 0013 1

2270ns 0 0 0 0 0016 e001 0 0009 0024 e0c0 0013 1

2270.1ns 0 0 0 0 0016 e001 0 0009 0024 e0c0 0024 1

2280ns 1 0 0 0 0016 e001 0 0009 0024 2e40 0024 1

2290ns 0 0 0 0 0016 e001 0 0009 0024 2e40 0024 1

2300ns 1 0 0 0 0016 e001 0 0009 0024 3801 0024 1

2310ns 0 0 0 0 0016 e001 0 0009 0024 3801 0024 1

2320ns 1 0 0 0 0016 e001 0 0009 0024 3a41 0024 1

2330ns 0 0 0 0 0016 e001 0 0009 0024 3a41 0024 1

2340ns 1 0 0 0 0016 e001 0 0009 0024 4121 0024 1

2350ns 0 0 0 0 0016 e001 0 0009 0024 4121 0024 1

2360ns 1 0 0 0 0016 e001 0 0009 0024 c002 0024 1

2370ns 0 0 0 0 0016 e001 0 0009 0024 c002 0024 1

2380ns 1 0 0 0 0016 e001 0 0009 0024 1225 0024 1

2390ns 0 0 0 0 0016 e001 0 0009 0024 1225 0024 1

2400ns 1 0 0 0 0016 e001 0 0009 0024 e040 0024 1

2410ns 0 0 0 0 0016 e001 0 0009 0024 e040 0024 1

2410.1ns 0 0 0 0 0016 e001 0 0009 0024 e040 0025 1

2420ns 1 0 0 0 0016 e001 0 0009 0024 110a 0025 1

2430ns 0 0 0 0 0016 e001 0 0009 0024 110a 0025 1

2440ns 1 0 0 0 0016 e001 0 0009 0024 e020 0025 1

2450ns 0 0 0 0 0016 e001 0 0009 0024 e020 0025 1

2450.1ns 0 0 0 0 0016 e001 0 0009 0024 e020 000a 1

2460ns 1 0 0 0 0016 e001 0 0009 0024 1b40 000a 1

2470ns 0 0 0 0 0016 e001 0 0009 0024 1b40 000a 1

2480ns 1 0 0 0 0016 e001 0 0009 0024 e060 000a 1

2490ns 0 0 0 0 0016 e001 0 0009 0024 e060 000a 1

2490.1ns 0 0 0 0 0016 e001 0 0009 0024 e060 0012 1

2500ns 1 0 0 0 0016 e001 0 0009 0024 3a41 0012 1

2510ns 0 0 0 0 0016 e001 0 0009 0024 3a41 0012 1

2520ns 1 0 0 0 0016 e001 0 0009 0024 4121 0012 1

2530ns 0 0 0 0 0016 e001 0 0009 0024 4121 0012 1

2540ns 1 0 0 0 0016 e001 0 0009 0024 c1fc 0012 1

2550ns 0 0 0 0 0016 e001 0 0009 0024 c1fc 0012 1

2560ns 1 0 0 0 0016 e001 0 0009 0024 1b40 0012 1

2570ns 0 0 0 0 0016 e001 0 0009 0024 1b40 0012 1

2580ns 1 0 0 0 0016 e001 0 0009 0024 e060 0012 1

2590ns 0 0 0 0 0016 e001 0 0009 0024 e060 0012 1

2590.1ns 0 0 0 0 0016 e001 0 0009 0024 e060 0034 1

2600ns 1 0 0 0 0016 e001 0 0009 0024 3a41 0034 1

2610ns 0 0 0 0 0016 e001 0 0009 0024 3a41 0034 1

2620ns 1 0 0 0 0016 e001 0 0009 0024 4121 0034 1

2630ns 0 0 0 0 0016 e001 0 0009 0024 4121 0034 1

2640ns 1 0 0 0 0016 e001 0 0009 0024 c1fc 0034 1

2650ns 0 0 0 0 0016 e001 0 0009 0024 c1fc 0034 1

2660ns 1 0 0 0 0016 e001 0 0009 0024 1b40 0034 1

2670ns 0 0 0 0 0016 e001 0 0009 0024 1b40 0034 1

2680ns 1 0 0 0 0016 e001 0 0009 0024 e060 0034 1

2690ns 0 0 0 0 0016 e001 0 0009 0024 e060 0034 1

2690.1ns 0 0 0 0 0016 e001 0 0009 0024 e060 0056 1

2700ns 1 0 0 0 0016 e001 0 0009 0024 3a41 0056 1

2710ns 0 0 0 0 0016 e001 0 0009 0024 3a41 0056 1

2720ns 1 0 0 0 0016 e001 0 0009 0024 4121 0056 1

2730ns 0 0 0 0 0016 e001 0 0009 0024 4121 0056 1

2740ns 1 0 0 0 0016 e001 0 0009 0024 c1fc 0056 1

2750ns 0 0 0 0 0016 e001 0 0009 0024 c1fc 0056 1

2760ns 1 0 0 0 0016 e001 0 0009 0024 1b40 0056 1

2770ns 0 0 0 0 0016 e001 0 0009 0024 1b40 0056 1

2780ns 1 0 0 0 0016 e001 0 0009 0024 e060 0056 1

2790ns 0 0 0 0 0016 e001 0 0009 0024 e060 0056 1

2790.1ns 0 0 0 0 0016 e001 0 0009 0024 e060 0078 1

2800ns 1 0 0 0 0016 e001 0 0009 0024 3a41 0078 1

2810ns 0 0 0 0 0016 e001 0 0009 0024 3a41 0078 1

2820ns 1 0 0 0 0016 e001 0 0009 0024 4121 0078 1

2830ns 0 0 0 0 0016 e001 0 0009 0024 4121 0078 1

2840ns 1 0 0 0 0016 e001 0 0009 0024 c1fc 0078 1

2850ns 0 0 0 0 0016 e001 0 0009 0024 c1fc 0078 1

2860ns 1 0 0 0 0016 e001 0 0009 0024 1b40 0078 1

2870ns 0 0 0 0 0016 e001 0 0009 0024 1b40 0078 1

2880ns 1 0 0 0 0016 e001 0 0009 0024 e060 0078 1

2890ns 0 0 0 0 0016 e001 0 0009 0024 e060 0078 1

2890.1ns 0 0 0 0 0016 e001 0 0009 0024 e060 009a 1

2900ns 1 0 0 0 0016 e001 0 0009 0024 3a41 009a 1

2910ns 0 0 0 0 0016 e001 0 0009 0024 3a41 009a 1

2920ns 1 0 0 0 0016 e001 0 0009 0024 4121 009a 1

2930ns 0 0 0 0 0016 e001 0 0009 0024 4121 009a 1

2940ns 1 0 0 0 0016 e001 0 0009 0024 c1fc 009a 1

2950ns 0 0 0 0 0016 e001 0 0009 0024 c1fc 009a 1

2960ns 1 0 0 0 0016 e001 0 0009 0024 1b40 009a 1

2970ns 0 0 0 0 0016 e001 0 0009 0024 1b40 009a 1

2980ns 1 0 0 0 0016 e001 0 0009 0024 e060 009a 1

2990ns 0 0 0 0 0016 e001 0 0009 0024 e060 009a 1

2990.1ns 0 0 0 0 0016 e001 0 0009 0024 e060 00bc 1

3000ns 1 0 0 0 0016 e001 0 0009 0024 3a41 00bc 1

3010ns 0 0 0 0 0016 e001 0 0009 0024 3a41 00bc 1

3020ns 1 0 0 0 0016 e001 0 0009 0024 4121 00bc 1

3030ns 0 0 0 0 0016 e001 0 0009 0024 4121 00bc 1

3040ns 1 0 0 0 0016 e001 0 0009 0024 c1fc 00bc 1

3050ns 0 0 0 0 0016 e001 0 0009 0024 c1fc 00bc 1

3060ns 1 0 0 0 0016 e001 0 0009 0024 1b40 00bc 1

3070ns 0 0 0 0 0016 e001 0 0009 0024 1b40 00bc 1

3080ns 1 0 0 0 0016 e001 0 0009 0024 e060 00bc 1

3090ns 0 0 0 0 0016 e001 0 0009 0024 e060 00bc 1

3090.1ns 0 0 0 0 0016 e001 0 0009 0024 e060 00de 1

3100ns 1 0 0 0 0016 e001 0 0009 0024 3a41 00de 1

3110ns 0 0 0 0 0016 e001 0 0009 0024 3a41 00de 1

3120ns 1 0 0 0 0016 e001 0 0009 0024 4121 00de 1

3130ns 0 0 0 0 0016 e001 0 0009 0024 4121 00de 1

3140ns 1 0 0 0 0016 e001 0 0009 0024 c1fc 00de 1

3150ns 0 0 0 0 0016 e001 0 0009 0024 c1fc 00de 1

3160ns 1 0 0 0 0016 e001 0 0009 0024 1b40 00de 1

3170ns 0 0 0 0 0016 e001 0 0009 0024 1b40 00de 1

3180ns 1 0 0 0 0016 e001 0 0009 0024 e060 00de 1

3190ns 0 0 0 0 0016 e001 0 0009 0024 e060 00de 1

3190.1ns 0 0 0 0 0016 e001 0 0009 0024 e060 00f0 1

3200ns 1 0 0 0 0016 e001 0 0009 0024 3a41 00f0 1

3210ns 0 0 0 0 0016 e001 0 0009 0024 3a41 00f0 1

3220ns 1 0 0 0 0016 e001 0 0009 0024 4121 00f0 1

3230ns 0 0 0 0 0016 e001 0 0009 0024 4121 00f0 1

3240ns 1 0 0 0 0016 e001 0 0009 0024 c1fc 00f0 1

3250ns 0 0 0 0 0016 e001 0 0009 0024 c1fc 00f0 1

3260ns 1 0 0 0 0016 e001 0 0009 0024 1b40 00f0 1

3270ns 0 0 0 0 0016 e001 0 0009 0024 1b40 00f0 1

3280ns 1 0 0 0 0016 e001 0 0009 0024 e060 00f0 1

3290ns 0 0 0 0 0016 e001 0 0009 0024 e060 00f0 1

3290.1ns 0 0 0 0 0016 e001 0 0009 0024 e060 0013 1

3300ns 1 0 0 0 0016 e001 0 0009 0024 3a41 0013 1

3310ns 0 0 0 0 0016 e001 0 0009 0024 3a41 0013 1

3320ns 1 0 0 0 0016 e001 0 0009 0024 4121 0013 1

3330ns 0 0 0 0 0016 e001 0 0009 0024 4121 0013 1

3340ns 1 0 0 0 0016 e001 0 0009 0024 c1fc 0013 1

3350ns 0 0 0 0 0016 e001 0 0009 0024 c1fc 0013 1

3360ns 1 0 0 0 0016 e001 0 0009 0024 1b40 0013 1

3370ns 0 0 0 0 0016 e001 0 0009 0024 1b40 0013 1

3380ns 1 0 0 0 0016 e001 0 0009 0024 e060 0013 1

3390ns 0 0 0 0 0016 e001 0 0009 0024 e060 0013 1

3390.1ns 0 0 0 0 0016 e001 0 0009 0024 e060 0024 1

3400ns 1 0 0 0 0016 e001 0 0009 0024 3a41 0024 1

3410ns 0 0 0 0 0016 e001 0 0009 0024 3a41 0024 1

3420ns 1 0 0 0 0016 e001 0 0009 0024 4121 0024 1

3430ns 0 0 0 0 0016 e001 0 0009 0024 4121 0024 1

3440ns 1 0 0 0 0016 e001 0 0009 0024 c1fc 0024 1

3450ns 0 0 0 0 0016 e001 0 0009 0024 c1fc 0024 1

Stopped at time : 3460 ns : File "C:/Users/ib701/Desktop/Single-Cycle-RISC-Schematic/Single-Cycle-RISC-Schematic/tb_Single_Cycle_RISC.v" Line 73
