Single-Cycle-RISC-Schematic/isim.log
ISim log file
Running: C:\Users\ib701\Desktop\Single-Cycle-RISC-Schematic\Single-Cycle-RISC-Schematic\Datapath_Module_Datapath_Module_sch_tb_isim_beh.exe -intstyle ise -gui -tclbatch isim.cmd -wdb C:/Users/ib701/Desktop/Single-Cycle-RISC-Schematic/Single-Cycle-RISC-Schematic/Datapath_Module_Datapath_Module_sch_tb_isim_beh.wdb 
ISim P.20131013 (signature 0x7708f090)
WARNING: A WEBPACK license was found.
WARNING: Please use Xilinx License Configuration Manager to check out a full ISim license.
WARNING: ISim will run in Lite mode. Please refer to the ISim documentation for more information on the differences between the Lite and the Full version.
This is a Lite version of ISim.
Time resolution is 1 ps
# onerror resume
# wave add /
# run 1000 ns
Simulator is doing circuit initialization process.
Finished circuit initialization process.
0ns x 0 0 1 0000 0000 0000 0000 

10ns 0 0 0 1 0000 0000 0000 0000 

20ns 1 0 0 1 0000 0000 0000 0000 

30ns 0 0 0 1 0000 0000 0000 0000 

40ns 1 0 0 1 0000 0000 0000 0000 

50ns 0 0 0 1 0000 0000 0000 0000 

60ns 1 0 0 1 0000 0000 0000 0000 

70ns 0 0 0 1 0000 0000 0000 0000 

80ns 1 0 0 1 0000 0000 0000 0000 

90ns 0 0 0 1 0000 0000 0000 0000 

100ns 1 0 0 1 0000 0000 0000 0000 

110ns 0 0 0 1 0000 0000 0000 0000 

120ns 1 0 0 1 0000 0000 0000 0000 

130ns 0 0 0 1 0000 0000 0000 0000 

140ns 1 0 0 1 0000 0000 0000 0000 

150ns 0 0 0 1 0000 0000 0000 0000 

160ns 1 0 1 1 0000 1900 0000 0000 

160.1ns 1 0 1 1 0000 1900 1900 0000 

170ns 0 0 1 1 0000 1900 1900 0000 

180ns 1 0 1 1 0001 e001 0000 0000 

180.1ns 1 0 1 1 0001 e001 e001 0000 

190ns 0 0 1 1 0001 e001 e001 0000 

200ns 1 0 1 1 0001 e001 e001 0000 

210ns 0 0 1 1 0001 e001 e001 0000 

220ns 1 0 1 1 0001 e001 e001 0000 

230ns 0 0 1 1 0001 e001 e001 0000 

240ns 1 1 0 0 0001 e001 1900 0000 

250ns 0 0 0 0 0001 e001 1900 0000 

260ns 1 0 0 0 0001 e001 1900 0000 

270ns 0 0 0 0 0001 e001 1900 0000 

280ns 1 0 0 0 0001 e001 1900 0000 

290ns 0 0 0 0 0001 e001 1900 0000 

300ns 1 0 0 0 0001 e001 1900 0000 

Stopped at time : 310 ns : File "C:/Users/ib701/Desktop/Single-Cycle-RISC-Schematic/Single-Cycle-RISC-Schematic/tb_Datapath_Module.v" Line 117
# restart
# run all
Simulator is doing circuit initialization process.
Finished circuit initialization process.
0ns x 0 0 1 0000 0000 0000 0000 

10ns 0 0 0 1 0000 0000 0000 0000 

20ns 1 0 0 1 0000 0000 0000 0000 

30ns 0 0 0 1 0000 0000 0000 0000 

40ns 1 0 0 1 0000 0000 0000 0000 

50ns 0 0 0 1 0000 0000 0000 0000 

60ns 1 0 0 1 0000 0000 0000 0000 

70ns 0 0 0 1 0000 0000 0000 0000 

80ns 1 0 0 1 0000 0000 0000 0000 

90ns 0 0 0 1 0000 0000 0000 0000 

100ns 1 0 0 1 0000 0000 0000 0000 

110ns 0 0 0 1 0000 0000 0000 0000 

120ns 1 0 0 1 0000 0000 0000 0000 

130ns 0 0 0 1 0000 0000 0000 0000 

140ns 1 0 0 1 0000 0000 0000 0000 

150ns 0 0 0 1 0000 0000 0000 0000 

160ns 1 0 1 1 0000 1900 0000 0000 

160.1ns 1 0 1 1 0000 1900 1900 0000 

170ns 0 0 1 1 0000 1900 1900 0000 

180ns 1 0 1 1 0001 e001 0000 0000 

180.1ns 1 0 1 1 0001 e001 e001 0000 

190ns 0 0 1 1 0001 e001 e001 0000 

200ns 1 0 1 1 0001 e001 e001 0000 

210ns 0 0 1 1 0001 e001 e001 0000 

220ns 1 0 1 1 0001 e001 e001 0000 

230ns 0 0 1 1 0001 e001 e001 0000 

240ns 1 1 0 0 0001 e001 1900 0000 

250ns 0 0 0 0 0001 e001 1900 0000 

260ns 1 0 0 0 0001 e001 1900 0000 

270ns 0 0 0 0 0001 e001 1900 0000 

280ns 1 0 0 0 0001 e001 1900 0000 

290ns 0 0 0 0 0001 e001 1900 0000 

300ns 1 0 0 0 0001 e001 1900 0000 

Stopped at time : 310 ns : File "C:/Users/ib701/Desktop/Single-Cycle-RISC-Schematic/Single-Cycle-RISC-Schematic/tb_Datapath_Module.v" Line 117
