Single-Cycle-RISC-Schematic/isim.log
ISim log file
Running: C:\Users\ib701\Desktop\Single-Cycle-RISC-Schematic\Single-Cycle-RISC-Schematic\Single_Cycle_RISC_Single_Cycle_RISC_sch_tb_isim_beh.exe -intstyle ise -gui -tclbatch isim.cmd -wdb C:/Users/ib701/Desktop/Single-Cycle-RISC-Schematic/Single-Cycle-RISC-Schematic/Single_Cycle_RISC_Single_Cycle_RISC_sch_tb_isim_beh.wdb 
ISim P.20131013 (signature 0x7708f090)
WARNING: A WEBPACK license was found.
WARNING: Please use Xilinx License Configuration Manager to check out a full ISim license.
WARNING: ISim will run in Lite mode. Please refer to the ISim documentation for more information on the differences between the Lite and the Full version.
This is a Lite version of ISim.
Time resolution is 1 ps
# onerror resume
# wave add /
# run 1000 ns
Simulator is doing circuit initialization process.
Finished circuit initialization process.
0ns 0 0 0 0 0000 0000 0 0000 0000 xxxx 0000 x

20ns 1 0 1 0 0000 0000 1 0025 0047 0000 0000 1

30ns 0 0 1 0 0000 0000 1 0025 0047 0000 0000 1

40ns 1 0 1 0 0000 0000 1 0026 0089 0000 0000 1

50ns 0 0 1 0 0000 0000 1 0026 0089 0000 0000 1

60ns 1 0 1 1 0000 1025 1 0026 0089 0000 0000 1

70ns 0 0 1 1 0000 1025 1 0026 0089 0000 0000 1

70.1ns 0 0 1 1 0000 1025 1 0026 0089 1025 0000 1

80ns 1 0 1 1 0001 0863 1 0026 0089 0000 0000 1

90ns 0 0 1 1 0001 0863 1 0026 0089 0000 0000 1

90.1ns 0 0 1 1 0001 0863 1 0026 0089 0863 0000 1

100ns 1 0 1 1 0002 e000 1 0026 0089 0000 0000 1

110ns 0 0 1 1 0002 e000 1 0026 0089 0000 0000 1

110.1ns 0 0 1 1 0002 e000 1 0026 0089 e000 0000 1

120ns 1 0 1 1 0003 1900 1 0026 0089 0000 0000 1

130ns 0 0 1 1 0003 1900 1 0026 0089 0000 0000 1

130.1ns 0 0 1 1 0003 1900 1 0026 0089 1900 0000 1

140ns 1 0 1 1 0004 1a01 1 0026 0089 0000 0000 1

150ns 0 0 1 1 0004 1a01 1 0026 0089 0000 0000 1

150.1ns 0 0 1 1 0004 1a01 1 0026 0089 1a01 0000 1

160ns 1 0 1 1 0005 e020 1 0026 0089 0000 0000 1

170ns 0 0 1 1 0005 e020 1 0026 0089 0000 0000 1

170.1ns 0 0 1 1 0005 e020 1 0026 0089 e020 0000 1

180ns 1 0 1 1 0006 e040 1 0026 0089 0000 0000 1

190ns 0 0 1 1 0006 e040 1 0026 0089 0000 0000 1

190.1ns 0 0 1 1 0006 e040 1 0026 0089 e040 0000 1

200ns 1 0 1 1 0007 0328 1 0026 0089 0000 0000 1

210ns 0 0 1 1 0007 0328 1 0026 0089 0000 0000 1

210.1ns 0 0 1 1 0007 0328 1 0026 0089 0328 0000 1

220ns 1 0 1 1 0008 e060 1 0026 0089 0000 0000 1

230ns 0 0 1 1 0008 e060 1 0026 0089 0000 0000 1

230.1ns 0 0 1 1 0008 e060 1 0026 0089 e060 0000 1

240ns 1 0 1 1 0009 032a 1 0026 0089 0000 0000 1

250ns 0 0 1 1 0009 032a 1 0026 0089 0000 0000 1

250.1ns 0 0 1 1 0009 032a 1 0026 0089 032a 0000 1

260ns 1 0 1 1 000a e060 1 0026 0089 0000 0000 1

270ns 0 0 1 1 000a e060 1 0026 0089 0000 0000 1

270.1ns 0 0 1 1 000a e060 1 0026 0089 e060 0000 1

280ns 1 0 1 1 000b e001 1 0026 0089 0000 0000 1

290ns 0 0 1 1 000b e001 1 0026 0089 0000 0000 1

290.1ns 0 0 1 1 000b e001 1 0026 0089 e001 0000 0

300ns 1 0 1 1 000b e001 1 0026 0089 e001 0000 0

310ns 0 0 1 1 000b e001 1 0026 0089 e001 0000 0

320ns 1 1 0 0 000b e001 0 0026 0089 1025 0000 1

330ns 0 0 0 0 000b e001 0 0026 0089 1025 0000 1

340ns 1 0 0 0 000b e001 0 0026 0089 0863 0000 1

350ns 0 0 0 0 000b e001 0 0026 0089 0863 0000 1

360ns 1 0 0 0 000b e001 0 0026 0089 e000 0000 1

370ns 0 0 0 0 000b e001 0 0026 0089 e000 0000 1

370.1ns 0 0 0 0 000b e001 0 0026 0089 e000 6325 1

380ns 1 0 0 0 000b e001 0 0026 0089 1900 6325 1

390ns 0 0 0 0 000b e001 0 0026 0089 1900 6325 1

400ns 1 0 0 0 000b e001 0 0026 0089 1a01 6325 1

410ns 0 0 0 0 000b e001 0 0026 0089 1a01 6325 1

420ns 1 0 0 0 000b e001 0 0026 0089 e020 6325 1

430ns 0 0 0 0 000b e001 0 0026 0089 e020 6325 1

430.1ns 0 0 0 0 000b e001 0 0026 0089 e020 0047 1

440ns 1 0 0 0 000b e001 0 0026 0089 e040 0047 1

450ns 0 0 0 0 000b e001 0 0026 0089 e040 0047 1

450.1ns 0 0 0 0 000b e001 0 0026 0089 e040 0089 1

460ns 1 0 0 0 000b e001 0 0026 0089 0328 0089 1

470ns 0 0 0 0 000b e001 0 0026 0089 0328 0089 1

480ns 1 0 0 0 000b e001 0 0026 0089 e060 0089 1

490ns 0 0 0 0 000b e001 0 0026 0089 e060 0089 1

490.1ns 0 0 0 0 000b e001 0 0026 0089 e060 00d0 1

500ns 1 0 0 0 000b e001 0 0026 0089 032a 00d0 1

510ns 0 0 0 0 000b e001 0 0026 0089 032a 00d0 1

520ns 1 0 0 0 000b e001 0 0026 0089 e060 00d0 1

530ns 0 0 0 0 000b e001 0 0026 0089 e060 00d0 1

530.1ns 0 0 0 0 000b e001 0 0026 0089 e060 ffbe 1

Stopped at time : 540 ns : File "C:/Users/ib701/Desktop/Single-Cycle-RISC-Schematic/Single-Cycle-RISC-Schematic/tb_Single_Cycle_RISC.v" Line 69
