Single-Cycle-RISC-Schematic/isim.log
ISim log file
Running: C:\Users\ib701\Desktop\Single-Cycle-RISC-Schematic\Single-Cycle-RISC-Schematic\Single_Cycle_RISC_Single_Cycle_RISC_sch_tb_isim_beh.exe -intstyle ise -gui -tclbatch isim.cmd -wdb C:/Users/ib701/Desktop/Single-Cycle-RISC-Schematic/Single-Cycle-RISC-Schematic/Single_Cycle_RISC_Single_Cycle_RISC_sch_tb_isim_beh.wdb 
ISim P.20131013 (signature 0x7708f090)
WARNING: A WEBPACK license was found.
WARNING: Please use Xilinx License Configuration Manager to check out a full ISim license.
WARNING: ISim will run in Lite mode. Please refer to the ISim documentation for more information on the differences between the Lite and the Full version.
This is a Lite version of ISim.
Time resolution is 1 ps
# onerror resume
# wave add /
# run 1000 ns
Simulator is doing circuit initialization process.
Finished circuit initialization process.
0ns 0 0 0 0 0000 0000 0 0000 0000 xxxx 0000 x

20ns 1 0 1 0 0000 0000 1 0000 0012 0000 0000 1

30ns 0 0 1 0 0000 0000 1 0000 0012 0000 0000 1

40ns 1 0 1 0 0000 0000 1 0001 0034 0000 0000 1

50ns 0 0 1 0 0000 0000 1 0001 0034 0000 0000 1

60ns 1 0 1 0 0000 0000 1 0002 0056 0000 0000 1

70ns 0 0 1 0 0000 0000 1 0002 0056 0000 0000 1

80ns 1 0 1 0 0000 0000 1 0003 0078 0000 0000 1

90ns 0 0 1 0 0000 0000 1 0003 0078 0000 0000 1

100ns 1 0 1 0 0000 0000 1 0004 009a 0000 0000 1

110ns 0 0 1 0 0000 0000 1 0004 009a 0000 0000 1

120ns 1 0 1 0 0000 0000 1 0005 00bc 0000 0000 1

130ns 0 0 1 0 0000 0000 1 0005 00bc 0000 0000 1

140ns 1 0 1 0 0000 0000 1 0006 00de 0000 0000 1

150ns 0 0 1 0 0000 0000 1 0006 00de 0000 0000 1

160ns 1 0 1 0 0000 0000 1 0007 00f0 0000 0000 1

170ns 0 0 1 0 0000 0000 1 0007 00f0 0000 0000 1

180ns 1 0 1 0 0000 0000 1 0008 0013 0000 0000 1

190ns 0 0 1 0 0000 0000 1 0008 0013 0000 0000 1

200ns 1 0 1 0 0000 0000 1 0009 0024 0000 0000 1

210ns 0 0 1 0 0000 0000 1 0009 0024 0000 0000 1

220ns 1 0 1 1 0000 e000 1 0009 0024 0000 0000 1

230ns 0 0 1 1 0000 e000 1 0009 0024 0000 0000 1

230.1ns 0 0 1 1 0000 e000 1 0009 0024 e000 0000 1

240ns 1 0 1 1 0001 110a 1 0009 0024 0000 0000 1

250ns 0 0 1 1 0001 110a 1 0009 0024 0000 0000 1

250.1ns 0 0 1 1 0001 110a 1 0009 0024 110a 0000 1

260ns 1 0 1 1 0002 e020 1 0009 0024 0000 0000 1

270ns 0 0 1 1 0002 e020 1 0009 0024 0000 0000 1

270.1ns 0 0 1 1 0002 e020 1 0009 0024 e020 0000 1

280ns 1 0 1 1 0003 1b00 1 0009 0024 0000 0000 1

290ns 0 0 1 1 0003 1b00 1 0009 0024 0000 0000 1

290.1ns 0 0 1 1 0003 1b00 1 0009 0024 1b00 0000 1

300ns 1 0 1 1 0004 048c 1 0009 0024 0000 0000 1

310ns 0 0 1 1 0004 048c 1 0009 0024 0000 0000 1

310.1ns 0 0 1 1 0004 048c 1 0009 0024 048c 0000 1

320ns 1 0 1 1 0005 e080 1 0009 0024 0000 0000 1

330ns 0 0 1 1 0005 e080 1 0009 0024 0000 0000 1

330.1ns 0 0 1 1 0005 e080 1 0009 0024 e080 0000 1

340ns 1 0 1 1 0006 3801 1 0009 0024 0000 0000 1

350ns 0 0 1 1 0006 3801 1 0009 0024 0000 0000 1

350.1ns 0 0 1 1 0006 3801 1 0009 0024 3801 0000 1

360ns 1 0 1 1 0007 4121 1 0009 0024 0000 0000 1

370ns 0 0 1 1 0007 4121 1 0009 0024 0000 0000 1

370.1ns 0 0 1 1 0007 4121 1 0009 0024 4121 0000 1

380ns 1 0 1 1 0008 c1fb 1 0009 0024 0000 0000 1

390ns 0 0 1 1 0008 c1fb 1 0009 0024 0000 0000 1

390.1ns 0 0 1 1 0008 c1fb 1 0009 0024 c1fb 0000 1

400ns 1 0 1 1 0009 e001 1 0009 0024 0000 0000 1

410ns 0 0 1 1 0009 e001 1 0009 0024 0000 0000 1

410.1ns 0 0 1 1 0009 e001 1 0009 0024 e001 0000 0

420ns 1 0 1 1 0009 e001 1 0009 0024 e001 0000 0

430ns 0 0 1 1 0009 e001 1 0009 0024 e001 0000 0

440ns 1 1 0 0 0009 e001 0 0009 0024 e000 0000 1

450ns 0 0 0 0 0009 e001 0 0009 0024 e000 0000 1

460ns 1 0 0 0 0009 e001 0 0009 0024 110a 0000 1

470ns 0 0 0 0 0009 e001 0 0009 0024 110a 0000 1

480ns 1 0 0 0 0009 e001 0 0009 0024 e020 0000 1

490ns 0 0 0 0 0009 e001 0 0009 0024 e020 0000 1

490.1ns 0 0 0 0 0009 e001 0 0009 0024 e020 000a 1

500ns 1 0 0 0 0009 e001 0 0009 0024 1b00 000a 1

510ns 0 0 0 0 0009 e001 0 0009 0024 1b00 000a 1

520ns 1 0 0 0 0009 e001 0 0009 0024 048c 000a 1

530ns 0 0 0 0 0009 e001 0 0009 0024 048c 000a 1

540ns 1 0 0 0 0009 e001 0 0009 0024 e080 000a 1

550ns 0 0 0 0 0009 e001 0 0009 0024 e080 000a 1

550.1ns 0 0 0 0 0009 e001 0 0009 0024 e080 0012 1

560ns 1 0 0 0 0009 e001 0 0009 0024 3801 0012 1

570ns 0 0 0 0 0009 e001 0 0009 0024 3801 0012 1

580ns 1 0 0 0 0009 e001 0 0009 0024 4121 0012 1

590ns 0 0 0 0 0009 e001 0 0009 0024 4121 0012 1

600ns 1 0 0 0 0009 e001 0 0009 0024 c1fb 0012 1

610ns 0 0 0 0 0009 e001 0 0009 0024 c1fb 0012 1

620ns 1 0 0 0 0009 e001 0 0009 0024 1b00 0012 1

630ns 0 0 0 0 0009 e001 0 0009 0024 1b00 0012 1

640ns 1 0 0 0 0009 e001 0 0009 0024 048c 0012 1

650ns 0 0 0 0 0009 e001 0 0009 0024 048c 0012 1

660ns 1 0 0 0 0009 e001 0 0009 0024 e080 0012 1

670ns 0 0 0 0 0009 e001 0 0009 0024 e080 0012 1

670.1ns 0 0 0 0 0009 e001 0 0009 0024 e080 0046 1

680ns 1 0 0 0 0009 e001 0 0009 0024 3801 0046 1

690ns 0 0 0 0 0009 e001 0 0009 0024 3801 0046 1

700ns 1 0 0 0 0009 e001 0 0009 0024 4121 0046 1

710ns 0 0 0 0 0009 e001 0 0009 0024 4121 0046 1

720ns 1 0 0 0 0009 e001 0 0009 0024 c1fb 0046 1

730ns 0 0 0 0 0009 e001 0 0009 0024 c1fb 0046 1

740ns 1 0 0 0 0009 e001 0 0009 0024 1b00 0046 1

750ns 0 0 0 0 0009 e001 0 0009 0024 1b00 0046 1

760ns 1 0 0 0 0009 e001 0 0009 0024 048c 0046 1

770ns 0 0 0 0 0009 e001 0 0009 0024 048c 0046 1

780ns 1 0 0 0 0009 e001 0 0009 0024 e080 0046 1

790ns 0 0 0 0 0009 e001 0 0009 0024 e080 0046 1

790.1ns 0 0 0 0 0009 e001 0 0009 0024 e080 009c 1

800ns 1 0 0 0 0009 e001 0 0009 0024 3801 009c 1

810ns 0 0 0 0 0009 e001 0 0009 0024 3801 009c 1

820ns 1 0 0 0 0009 e001 0 0009 0024 4121 009c 1

830ns 0 0 0 0 0009 e001 0 0009 0024 4121 009c 1

840ns 1 0 0 0 0009 e001 0 0009 0024 c1fb 009c 1

850ns 0 0 0 0 0009 e001 0 0009 0024 c1fb 009c 1

860ns 1 0 0 0 0009 e001 0 0009 0024 1b00 009c 1

870ns 0 0 0 0 0009 e001 0 0009 0024 1b00 009c 1

880ns 1 0 0 0 0009 e001 0 0009 0024 048c 009c 1

890ns 0 0 0 0 0009 e001 0 0009 0024 048c 009c 1

900ns 1 0 0 0 0009 e001 0 0009 0024 e080 009c 1

910ns 0 0 0 0 0009 e001 0 0009 0024 e080 009c 1

910.1ns 0 0 0 0 0009 e001 0 0009 0024 e080 0114 1

920ns 1 0 0 0 0009 e001 0 0009 0024 3801 0114 1

930ns 0 0 0 0 0009 e001 0 0009 0024 3801 0114 1

940ns 1 0 0 0 0009 e001 0 0009 0024 4121 0114 1

950ns 0 0 0 0 0009 e001 0 0009 0024 4121 0114 1

960ns 1 0 0 0 0009 e001 0 0009 0024 c1fb 0114 1

970ns 0 0 0 0 0009 e001 0 0009 0024 c1fb 0114 1

980ns 1 0 0 0 0009 e001 0 0009 0024 1b00 0114 1

990ns 0 0 0 0 0009 e001 0 0009 0024 1b00 0114 1

1000ns 1 0 0 0 0009 e001 0 0009 0024 048c 0114 1

ISim P.20131013 (signature 0x7708f090)
WARNING: A WEBPACK license was found.
WARNING: Please use Xilinx License Configuration Manager to check out a full ISim license.
WARNING: ISim will run in Lite mode. Please refer to the ISim documentation for more information on the differences between the Lite and the Full version.
This is a Lite version of ISim.
# run 1000 ns
Simulator is doing circuit initialization process.
Finished circuit initialization process.
0ns 0 0 0 0 0000 0000 0 0000 0000 xxxx 0000 x

20ns 1 0 1 0 0000 0000 1 0000 0012 0000 0000 1

30ns 0 0 1 0 0000 0000 1 0000 0012 0000 0000 1

40ns 1 0 1 0 0000 0000 1 0001 0034 0000 0000 1

50ns 0 0 1 0 0000 0000 1 0001 0034 0000 0000 1

60ns 1 0 1 0 0000 0000 1 0002 0056 0000 0000 1

70ns 0 0 1 0 0000 0000 1 0002 0056 0000 0000 1

80ns 1 0 1 0 0000 0000 1 0003 0078 0000 0000 1

90ns 0 0 1 0 0000 0000 1 0003 0078 0000 0000 1

100ns 1 0 1 0 0000 0000 1 0004 009a 0000 0000 1

110ns 0 0 1 0 0000 0000 1 0004 009a 0000 0000 1

120ns 1 0 1 0 0000 0000 1 0005 00bc 0000 0000 1

130ns 0 0 1 0 0000 0000 1 0005 00bc 0000 0000 1

140ns 1 0 1 0 0000 0000 1 0006 00de 0000 0000 1

150ns 0 0 1 0 0000 0000 1 0006 00de 0000 0000 1

160ns 1 0 1 0 0000 0000 1 0007 00f0 0000 0000 1

170ns 0 0 1 0 0000 0000 1 0007 00f0 0000 0000 1

180ns 1 0 1 0 0000 0000 1 0008 0013 0000 0000 1

190ns 0 0 1 0 0000 0000 1 0008 0013 0000 0000 1

200ns 1 0 1 0 0000 0000 1 0009 0024 0000 0000 1

210ns 0 0 1 0 0000 0000 1 0009 0024 0000 0000 1

220ns 1 0 1 1 0000 e000 1 0009 0024 0000 0000 1

230ns 0 0 1 1 0000 e000 1 0009 0024 0000 0000 1

230.1ns 0 0 1 1 0000 e000 1 0009 0024 e000 0000 1

240ns 1 0 1 1 0001 110a 1 0009 0024 0000 0000 1

250ns 0 0 1 1 0001 110a 1 0009 0024 0000 0000 1

250.1ns 0 0 1 1 0001 110a 1 0009 0024 110a 0000 1

260ns 1 0 1 1 0002 e020 1 0009 0024 0000 0000 1

270ns 0 0 1 1 0002 e020 1 0009 0024 0000 0000 1

270.1ns 0 0 1 1 0002 e020 1 0009 0024 e020 0000 1

280ns 1 0 1 1 0003 1b00 1 0009 0024 0000 0000 1

290ns 0 0 1 1 0003 1b00 1 0009 0024 0000 0000 1

290.1ns 0 0 1 1 0003 1b00 1 0009 0024 1b00 0000 1

300ns 1 0 1 1 0004 048c 1 0009 0024 0000 0000 1

310ns 0 0 1 1 0004 048c 1 0009 0024 0000 0000 1

310.1ns 0 0 1 1 0004 048c 1 0009 0024 048c 0000 1

320ns 1 0 1 1 0005 e080 1 0009 0024 0000 0000 1

330ns 0 0 1 1 0005 e080 1 0009 0024 0000 0000 1

330.1ns 0 0 1 1 0005 e080 1 0009 0024 e080 0000 1

340ns 1 0 1 1 0006 3801 1 0009 0024 0000 0000 1

350ns 0 0 1 1 0006 3801 1 0009 0024 0000 0000 1

350.1ns 0 0 1 1 0006 3801 1 0009 0024 3801 0000 1

360ns 1 0 1 1 0007 4121 1 0009 0024 0000 0000 1

370ns 0 0 1 1 0007 4121 1 0009 0024 0000 0000 1

370.1ns 0 0 1 1 0007 4121 1 0009 0024 4121 0000 1

380ns 1 0 1 1 0008 c1fb 1 0009 0024 0000 0000 1

390ns 0 0 1 1 0008 c1fb 1 0009 0024 0000 0000 1

390.1ns 0 0 1 1 0008 c1fb 1 0009 0024 c1fb 0000 1

400ns 1 0 1 1 0009 e001 1 0009 0024 0000 0000 1

410ns 0 0 1 1 0009 e001 1 0009 0024 0000 0000 1

410.1ns 0 0 1 1 0009 e001 1 0009 0024 e001 0000 0

420ns 1 0 1 1 0009 e001 1 0009 0024 e001 0000 0

430ns 0 0 1 1 0009 e001 1 0009 0024 e001 0000 0

440ns 1 1 0 0 0009 e001 0 0009 0024 e000 0000 1

450ns 0 0 0 0 0009 e001 0 0009 0024 e000 0000 1

460ns 1 0 0 0 0009 e001 0 0009 0024 110a 0000 1

470ns 0 0 0 0 0009 e001 0 0009 0024 110a 0000 1

480ns 1 0 0 0 0009 e001 0 0009 0024 e020 0000 1

490ns 0 0 0 0 0009 e001 0 0009 0024 e020 0000 1

490.1ns 0 0 0 0 0009 e001 0 0009 0024 e020 000a 1

500ns 1 0 0 0 0009 e001 0 0009 0024 1b00 000a 1

510ns 0 0 0 0 0009 e001 0 0009 0024 1b00 000a 1

520ns 1 0 0 0 0009 e001 0 0009 0024 048c 000a 1

530ns 0 0 0 0 0009 e001 0 0009 0024 048c 000a 1

540ns 1 0 0 0 0009 e001 0 0009 0024 e080 000a 1

550ns 0 0 0 0 0009 e001 0 0009 0024 e080 000a 1

550.1ns 0 0 0 0 0009 e001 0 0009 0024 e080 0012 1

560ns 1 0 0 0 0009 e001 0 0009 0024 3801 0012 1

570ns 0 0 0 0 0009 e001 0 0009 0024 3801 0012 1

580ns 1 0 0 0 0009 e001 0 0009 0024 4121 0012 1

590ns 0 0 0 0 0009 e001 0 0009 0024 4121 0012 1

600ns 1 0 0 0 0009 e001 0 0009 0024 c1fb 0012 1

610ns 0 0 0 0 0009 e001 0 0009 0024 c1fb 0012 1

620ns 1 0 0 0 0009 e001 0 0009 0024 1b00 0012 1

630ns 0 0 0 0 0009 e001 0 0009 0024 1b00 0012 1

640ns 1 0 0 0 0009 e001 0 0009 0024 048c 0012 1

650ns 0 0 0 0 0009 e001 0 0009 0024 048c 0012 1

660ns 1 0 0 0 0009 e001 0 0009 0024 e080 0012 1

670ns 0 0 0 0 0009 e001 0 0009 0024 e080 0012 1

670.1ns 0 0 0 0 0009 e001 0 0009 0024 e080 0046 1

680ns 1 0 0 0 0009 e001 0 0009 0024 3801 0046 1

690ns 0 0 0 0 0009 e001 0 0009 0024 3801 0046 1

700ns 1 0 0 0 0009 e001 0 0009 0024 4121 0046 1

710ns 0 0 0 0 0009 e001 0 0009 0024 4121 0046 1

720ns 1 0 0 0 0009 e001 0 0009 0024 c1fb 0046 1

730ns 0 0 0 0 0009 e001 0 0009 0024 c1fb 0046 1

740ns 1 0 0 0 0009 e001 0 0009 0024 1b00 0046 1

750ns 0 0 0 0 0009 e001 0 0009 0024 1b00 0046 1

760ns 1 0 0 0 0009 e001 0 0009 0024 048c 0046 1

770ns 0 0 0 0 0009 e001 0 0009 0024 048c 0046 1

780ns 1 0 0 0 0009 e001 0 0009 0024 e080 0046 1

790ns 0 0 0 0 0009 e001 0 0009 0024 e080 0046 1

790.1ns 0 0 0 0 0009 e001 0 0009 0024 e080 009c 1

800ns 1 0 0 0 0009 e001 0 0009 0024 3801 009c 1

810ns 0 0 0 0 0009 e001 0 0009 0024 3801 009c 1

820ns 1 0 0 0 0009 e001 0 0009 0024 4121 009c 1

830ns 0 0 0 0 0009 e001 0 0009 0024 4121 009c 1

840ns 1 0 0 0 0009 e001 0 0009 0024 c1fb 009c 1

850ns 0 0 0 0 0009 e001 0 0009 0024 c1fb 009c 1

860ns 1 0 0 0 0009 e001 0 0009 0024 1b00 009c 1

870ns 0 0 0 0 0009 e001 0 0009 0024 1b00 009c 1

880ns 1 0 0 0 0009 e001 0 0009 0024 048c 009c 1

890ns 0 0 0 0 0009 e001 0 0009 0024 048c 009c 1

900ns 1 0 0 0 0009 e001 0 0009 0024 e080 009c 1

910ns 0 0 0 0 0009 e001 0 0009 0024 e080 009c 1

910.1ns 0 0 0 0 0009 e001 0 0009 0024 e080 0114 1

920ns 1 0 0 0 0009 e001 0 0009 0024 3801 0114 1

930ns 0 0 0 0 0009 e001 0 0009 0024 3801 0114 1

940ns 1 0 0 0 0009 e001 0 0009 0024 4121 0114 1

950ns 0 0 0 0 0009 e001 0 0009 0024 4121 0114 1

960ns 1 0 0 0 0009 e001 0 0009 0024 c1fb 0114 1

970ns 0 0 0 0 0009 e001 0 0009 0024 c1fb 0114 1

980ns 1 0 0 0 0009 e001 0 0009 0024 1b00 0114 1

990ns 0 0 0 0 0009 e001 0 0009 0024 1b00 0114 1

1000ns 1 0 0 0 0009 e001 0 0009 0024 048c 0114 1

ISim P.20131013 (signature 0x7708f090)
WARNING: A WEBPACK license was found.
WARNING: Please use Xilinx License Configuration Manager to check out a full ISim license.
WARNING: ISim will run in Lite mode. Please refer to the ISim documentation for more information on the differences between the Lite and the Full version.
This is a Lite version of ISim.
# run 1000 ns
Simulator is doing circuit initialization process.
Finished circuit initialization process.
0ns 0 0 0 0 0000 0000 0 0000 0000 xxxx 0000 x

20ns 1 0 1 0 0000 0000 1 0000 0012 0000 0000 1

30ns 0 0 1 0 0000 0000 1 0000 0012 0000 0000 1

40ns 1 0 1 0 0000 0000 1 0001 0034 0000 0000 1

50ns 0 0 1 0 0000 0000 1 0001 0034 0000 0000 1

60ns 1 0 1 0 0000 0000 1 0002 0056 0000 0000 1

70ns 0 0 1 0 0000 0000 1 0002 0056 0000 0000 1

80ns 1 0 1 0 0000 0000 1 0003 0078 0000 0000 1

90ns 0 0 1 0 0000 0000 1 0003 0078 0000 0000 1

100ns 1 0 1 0 0000 0000 1 0004 009a 0000 0000 1

110ns 0 0 1 0 0000 0000 1 0004 009a 0000 0000 1

120ns 1 0 1 0 0000 0000 1 0005 00bc 0000 0000 1

130ns 0 0 1 0 0000 0000 1 0005 00bc 0000 0000 1

140ns 1 0 1 0 0000 0000 1 0006 00de 0000 0000 1

150ns 0 0 1 0 0000 0000 1 0006 00de 0000 0000 1

160ns 1 0 1 0 0000 0000 1 0007 00f0 0000 0000 1

170ns 0 0 1 0 0000 0000 1 0007 00f0 0000 0000 1

180ns 1 0 1 0 0000 0000 1 0008 0013 0000 0000 1

190ns 0 0 1 0 0000 0000 1 0008 0013 0000 0000 1

200ns 1 0 1 0 0000 0000 1 0009 0024 0000 0000 1

210ns 0 0 1 0 0000 0000 1 0009 0024 0000 0000 1

220ns 1 0 1 1 0000 e000 1 0009 0024 0000 0000 1

230ns 0 0 1 1 0000 e000 1 0009 0024 0000 0000 1

230.1ns 0 0 1 1 0000 e000 1 0009 0024 e000 0000 1

240ns 1 0 1 1 0001 110a 1 0009 0024 0000 0000 1

250ns 0 0 1 1 0001 110a 1 0009 0024 0000 0000 1

250.1ns 0 0 1 1 0001 110a 1 0009 0024 110a 0000 1

260ns 1 0 1 1 0002 e020 1 0009 0024 0000 0000 1

270ns 0 0 1 1 0002 e020 1 0009 0024 0000 0000 1

270.1ns 0 0 1 1 0002 e020 1 0009 0024 e020 0000 1

280ns 1 0 1 1 0003 1b00 1 0009 0024 0000 0000 1

290ns 0 0 1 1 0003 1b00 1 0009 0024 0000 0000 1

290.1ns 0 0 1 1 0003 1b00 1 0009 0024 1b00 0000 1

300ns 1 0 1 1 0004 048c 1 0009 0024 0000 0000 1

310ns 0 0 1 1 0004 048c 1 0009 0024 0000 0000 1

310.1ns 0 0 1 1 0004 048c 1 0009 0024 048c 0000 1

320ns 1 0 1 1 0005 e080 1 0009 0024 0000 0000 1

330ns 0 0 1 1 0005 e080 1 0009 0024 0000 0000 1

330.1ns 0 0 1 1 0005 e080 1 0009 0024 e080 0000 1

340ns 1 0 1 1 0006 3801 1 0009 0024 0000 0000 1

350ns 0 0 1 1 0006 3801 1 0009 0024 0000 0000 1

350.1ns 0 0 1 1 0006 3801 1 0009 0024 3801 0000 1

360ns 1 0 1 1 0007 4121 1 0009 0024 0000 0000 1

370ns 0 0 1 1 0007 4121 1 0009 0024 0000 0000 1

370.1ns 0 0 1 1 0007 4121 1 0009 0024 4121 0000 1

380ns 1 0 1 1 0008 c1fb 1 0009 0024 0000 0000 1

390ns 0 0 1 1 0008 c1fb 1 0009 0024 0000 0000 1

390.1ns 0 0 1 1 0008 c1fb 1 0009 0024 c1fb 0000 1

400ns 1 0 1 1 0009 e001 1 0009 0024 0000 0000 1

410ns 0 0 1 1 0009 e001 1 0009 0024 0000 0000 1

410.1ns 0 0 1 1 0009 e001 1 0009 0024 e001 0000 0

420ns 1 0 1 1 0009 e001 1 0009 0024 e001 0000 0

430ns 0 0 1 1 0009 e001 1 0009 0024 e001 0000 0

440ns 1 1 0 0 0009 e001 0 0009 0024 e000 0000 1

450ns 0 0 0 0 0009 e001 0 0009 0024 e000 0000 1

460ns 1 0 0 0 0009 e001 0 0009 0024 110a 0000 1

470ns 0 0 0 0 0009 e001 0 0009 0024 110a 0000 1

480ns 1 0 0 0 0009 e001 0 0009 0024 e020 0000 1

490ns 0 0 0 0 0009 e001 0 0009 0024 e020 0000 1

490.1ns 0 0 0 0 0009 e001 0 0009 0024 e020 000a 1

500ns 1 0 0 0 0009 e001 0 0009 0024 1b00 000a 1

510ns 0 0 0 0 0009 e001 0 0009 0024 1b00 000a 1

520ns 1 0 0 0 0009 e001 0 0009 0024 048c 000a 1

530ns 0 0 0 0 0009 e001 0 0009 0024 048c 000a 1

540ns 1 0 0 0 0009 e001 0 0009 0024 e080 000a 1

550ns 0 0 0 0 0009 e001 0 0009 0024 e080 000a 1

550.1ns 0 0 0 0 0009 e001 0 0009 0024 e080 0012 1

560ns 1 0 0 0 0009 e001 0 0009 0024 3801 0012 1

570ns 0 0 0 0 0009 e001 0 0009 0024 3801 0012 1

580ns 1 0 0 0 0009 e001 0 0009 0024 4121 0012 1

590ns 0 0 0 0 0009 e001 0 0009 0024 4121 0012 1

600ns 1 0 0 0 0009 e001 0 0009 0024 c1fb 0012 1

610ns 0 0 0 0 0009 e001 0 0009 0024 c1fb 0012 1

620ns 1 0 0 0 0009 e001 0 0009 0024 1b00 0012 1

630ns 0 0 0 0 0009 e001 0 0009 0024 1b00 0012 1

640ns 1 0 0 0 0009 e001 0 0009 0024 048c 0012 1

650ns 0 0 0 0 0009 e001 0 0009 0024 048c 0012 1

660ns 1 0 0 0 0009 e001 0 0009 0024 e080 0012 1

670ns 0 0 0 0 0009 e001 0 0009 0024 e080 0012 1

670.1ns 0 0 0 0 0009 e001 0 0009 0024 e080 0046 1

680ns 1 0 0 0 0009 e001 0 0009 0024 3801 0046 1

690ns 0 0 0 0 0009 e001 0 0009 0024 3801 0046 1

700ns 1 0 0 0 0009 e001 0 0009 0024 4121 0046 1

710ns 0 0 0 0 0009 e001 0 0009 0024 4121 0046 1

720ns 1 0 0 0 0009 e001 0 0009 0024 c1fb 0046 1

730ns 0 0 0 0 0009 e001 0 0009 0024 c1fb 0046 1

740ns 1 0 0 0 0009 e001 0 0009 0024 1b00 0046 1

750ns 0 0 0 0 0009 e001 0 0009 0024 1b00 0046 1

760ns 1 0 0 0 0009 e001 0 0009 0024 048c 0046 1

770ns 0 0 0 0 0009 e001 0 0009 0024 048c 0046 1

780ns 1 0 0 0 0009 e001 0 0009 0024 e080 0046 1

790ns 0 0 0 0 0009 e001 0 0009 0024 e080 0046 1

790.1ns 0 0 0 0 0009 e001 0 0009 0024 e080 009c 1

800ns 1 0 0 0 0009 e001 0 0009 0024 3801 009c 1

810ns 0 0 0 0 0009 e001 0 0009 0024 3801 009c 1

820ns 1 0 0 0 0009 e001 0 0009 0024 4121 009c 1

830ns 0 0 0 0 0009 e001 0 0009 0024 4121 009c 1

840ns 1 0 0 0 0009 e001 0 0009 0024 c1fb 009c 1

850ns 0 0 0 0 0009 e001 0 0009 0024 c1fb 009c 1

860ns 1 0 0 0 0009 e001 0 0009 0024 1b00 009c 1

870ns 0 0 0 0 0009 e001 0 0009 0024 1b00 009c 1

880ns 1 0 0 0 0009 e001 0 0009 0024 048c 009c 1

890ns 0 0 0 0 0009 e001 0 0009 0024 048c 009c 1

900ns 1 0 0 0 0009 e001 0 0009 0024 e080 009c 1

910ns 0 0 0 0 0009 e001 0 0009 0024 e080 009c 1

910.1ns 0 0 0 0 0009 e001 0 0009 0024 e080 0114 1

920ns 1 0 0 0 0009 e001 0 0009 0024 3801 0114 1

930ns 0 0 0 0 0009 e001 0 0009 0024 3801 0114 1

940ns 1 0 0 0 0009 e001 0 0009 0024 4121 0114 1

950ns 0 0 0 0 0009 e001 0 0009 0024 4121 0114 1

960ns 1 0 0 0 0009 e001 0 0009 0024 c1fb 0114 1

970ns 0 0 0 0 0009 e001 0 0009 0024 c1fb 0114 1

980ns 1 0 0 0 0009 e001 0 0009 0024 1b00 0114 1

990ns 0 0 0 0 0009 e001 0 0009 0024 1b00 0114 1

1000ns 1 0 0 0 0009 e001 0 0009 0024 048c 0114 1

# step
Stopped at time : 1010 ns : File "C:/Users/ib701/Desktop/Single-Cycle-RISC-Schematic/Single-Cycle-RISC-Schematic/tb_Single_Cycle_RISC.v" Line 45
# step
Stopped at time : 1010 ns : File "C:/Users/ib701/Desktop/Single-Cycle-RISC-Schematic/Single-Cycle-RISC-Schematic/tb_Single_Cycle_RISC.v" Line 46
# run all
1010ns 0 0 0 0 0009 e001 0 0009 0024 048c 0114 1

1020ns 1 0 0 0 0009 e001 0 0009 0024 e080 0114 1

1030ns 0 0 0 0 0009 e001 0 0009 0024 e080 0114 1

1030.1ns 0 0 0 0 0009 e001 0 0009 0024 e080 01ae 1

1040ns 1 0 0 0 0009 e001 0 0009 0024 3801 01ae 1

1050ns 0 0 0 0 0009 e001 0 0009 0024 3801 01ae 1

1060ns 1 0 0 0 0009 e001 0 0009 0024 4121 01ae 1

1070ns 0 0 0 0 0009 e001 0 0009 0024 4121 01ae 1

1080ns 1 0 0 0 0009 e001 0 0009 0024 c1fb 01ae 1

1090ns 0 0 0 0 0009 e001 0 0009 0024 c1fb 01ae 1

1100ns 1 0 0 0 0009 e001 0 0009 0024 1b00 01ae 1

1110ns 0 0 0 0 0009 e001 0 0009 0024 1b00 01ae 1

1120ns 1 0 0 0 0009 e001 0 0009 0024 048c 01ae 1

1130ns 0 0 0 0 0009 e001 0 0009 0024 048c 01ae 1

1140ns 1 0 0 0 0009 e001 0 0009 0024 e080 01ae 1

1150ns 0 0 0 0 0009 e001 0 0009 0024 e080 01ae 1

1150.1ns 0 0 0 0 0009 e001 0 0009 0024 e080 026a 1

1160ns 1 0 0 0 0009 e001 0 0009 0024 3801 026a 1

1170ns 0 0 0 0 0009 e001 0 0009 0024 3801 026a 1

1180ns 1 0 0 0 0009 e001 0 0009 0024 4121 026a 1

1190ns 0 0 0 0 0009 e001 0 0009 0024 4121 026a 1

1200ns 1 0 0 0 0009 e001 0 0009 0024 c1fb 026a 1

1210ns 0 0 0 0 0009 e001 0 0009 0024 c1fb 026a 1

1220ns 1 0 0 0 0009 e001 0 0009 0024 1b00 026a 1

1230ns 0 0 0 0 0009 e001 0 0009 0024 1b00 026a 1

1240ns 1 0 0 0 0009 e001 0 0009 0024 048c 026a 1

1250ns 0 0 0 0 0009 e001 0 0009 0024 048c 026a 1

1260ns 1 0 0 0 0009 e001 0 0009 0024 e080 026a 1

1270ns 0 0 0 0 0009 e001 0 0009 0024 e080 026a 1

1270.1ns 0 0 0 0 0009 e001 0 0009 0024 e080 0348 1

1280ns 1 0 0 0 0009 e001 0 0009 0024 3801 0348 1

1290ns 0 0 0 0 0009 e001 0 0009 0024 3801 0348 1

1300ns 1 0 0 0 0009 e001 0 0009 0024 4121 0348 1

1310ns 0 0 0 0 0009 e001 0 0009 0024 4121 0348 1

1320ns 1 0 0 0 0009 e001 0 0009 0024 c1fb 0348 1

1330ns 0 0 0 0 0009 e001 0 0009 0024 c1fb 0348 1

1340ns 1 0 0 0 0009 e001 0 0009 0024 1b00 0348 1

1350ns 0 0 0 0 0009 e001 0 0009 0024 1b00 0348 1

1360ns 1 0 0 0 0009 e001 0 0009 0024 048c 0348 1

1370ns 0 0 0 0 0009 e001 0 0009 0024 048c 0348 1

1380ns 1 0 0 0 0009 e001 0 0009 0024 e080 0348 1

1390ns 0 0 0 0 0009 e001 0 0009 0024 e080 0348 1

1390.1ns 0 0 0 0 0009 e001 0 0009 0024 e080 0438 1

1400ns 1 0 0 0 0009 e001 0 0009 0024 3801 0438 1

1410ns 0 0 0 0 0009 e001 0 0009 0024 3801 0438 1

1420ns 1 0 0 0 0009 e001 0 0009 0024 4121 0438 1

1430ns 0 0 0 0 0009 e001 0 0009 0024 4121 0438 1

1440ns 1 0 0 0 0009 e001 0 0009 0024 c1fb 0438 1

1450ns 0 0 0 0 0009 e001 0 0009 0024 c1fb 0438 1

1460ns 1 0 0 0 0009 e001 0 0009 0024 1b00 0438 1

1470ns 0 0 0 0 0009 e001 0 0009 0024 1b00 0438 1

1480ns 1 0 0 0 0009 e001 0 0009 0024 048c 0438 1

1490ns 0 0 0 0 0009 e001 0 0009 0024 048c 0438 1

1500ns 1 0 0 0 0009 e001 0 0009 0024 e080 0438 1

1510ns 0 0 0 0 0009 e001 0 0009 0024 e080 0438 1

1510.1ns 0 0 0 0 0009 e001 0 0009 0024 e080 044b 1

1520ns 1 0 0 0 0009 e001 0 0009 0024 3801 044b 1

1530ns 0 0 0 0 0009 e001 0 0009 0024 3801 044b 1

